{"content":[{"id":1,"title":"Gladiator II","description":"Decades after Maximus death, Lucius enters the Colosseum to restore glory to Rome.","durationMinutes":148,"releaseDate":"2025-12-05","upcoming":false,"rating":3.9,"ageRating":"R","status":null,"posterUrl":"https://res.cloudinary.com/dqsv5vmd4/image/upload/v1769621316/k56oguwfgu3optwcysep.jpg","backgroundUrl":"https://res.cloudinary.com/dqsv5vmd4/image/upload/v1769621318/bvo602jjaxzjynmbshtw.jpg","cast":["Paul Mescal","Pedro Pascal","Denzel Washington"],"crew":["Ridley Scott","David Scarpa"],"viewCount":0,"genres":["Action","Drama"],"languages":["English"]},{"id":2,"title":"Sonic the Hedgehog 3","description":"Sonic, Tails, and Knuckles face a mysterious new adversary, Shadow the Hedgehog.","durationMinutes":110,"releaseDate":"2025-12-20","upcoming":false,"rating":4.1,"ageRating":"PG","status":null,"posterUrl":"https://res.cloudinary.com/dqsv5vmd4/image/upload/v1769621380/n42hmmjvjs9sud7tejf8.jpg","backgroundUrl":"https://res.cloudinary.com/dqsv5vmd4/image/upload/v1769621382/qak8qwhbh1hydin4zye9.jpg","cast":["Ben Schwartz","Idris Elba","Keanu Reeves"],"crew":["Jeff Fowler","Pat Casey"],"viewCount":1,"genres":["Sci-Fi","Action"],"languages":["English"]},{"id":3,"title":"Kraven the Hunter","description":"Russian immigrant Sergei Kravinoff sets out on a mission to prove that he is the greatest hunter in the world.","durationMinutes":127,"releaseDate":"2025-12-13","upcoming":false,"rating":3.2,"ageRating":"R","status":null,"posterUrl":"https://res.cloudinary.com/dqsv5vmd4/image/upload/v1769621442/ymuvbn1auk4qgcxud0ck.jpg","backgroundUrl":"https://res.cloudinary.com/dqsv5vmd4/image/upload/v1769621445/mzozjebjhp1fwmyrfpw8.jpg","cast":["Aaron Taylor-Johnson","Russell Crowe","Ariana DeBose"],"crew":["J.C. Chandor","Art Marcum"],"viewCount":0,"genres":["Action","Thriller"],"languages":["English"]},{"id":4,"title":"Mufasa: The Lion King","description":"Simba, having become king of the Pride Lands, is determined for his cub to follow in his paw prints.","durationMinutes":118,"releaseDate":"2025-12-20","upcoming":false,"rating":3.5,"ageRating":"U","status":null,"posterUrl":"https://res.cloudinary.com/dqsv5vmd4/image/upload/v1769621499/tukjxb9bi1jqvygesczv.jpg","backgroundUrl":"https://res.cloudinary.com/dqsv5vmd4/image/upload/v1769621501/yimziuw420kaxuteuuhk.jpg","cast":["Aaron Pierre","Kelvin Harrison Jr.","Seth Rogen"],"crew":["Barry Jenkins","Jeff Nathanson"],"viewCount":0,"genres":["Drama"],"languages":["English"]},{"id":5,"title":"Nosferatu","description":"A gothic tale of obsession between a haunted young woman and the terrifying vampire infatuated with her.","durationMinutes":132,"releaseDate":"2025-12-25","upcoming":false,"rating":4.3,"ageRating":"R","status":null,"posterUrl":"https://res.cloudinary.com/dqsv5vmd4/image/upload/v1769621540/yoowhzd6fjrv5i6s80r1.jpg","backgroundUrl":"https://res.cloudinary.com/dqsv5vmd4/image/upload/v1769621542/poun7oy4vpjuli9flev5.jpg","cast":["Bill Skarsgard","Lily-Rose Depp","Willem Dafoe"],"crew":["Robert Eggers"],"viewCount":0,"genres":["Drama","Horror"],"languages":["English"]},{"id":6,"title":"Paddington in Peru","description":"Paddington returns to Peru to visit his beloved Aunt Lucy, who now resides at the Home for Retired Bears.","durationMinutes":106,"releaseDate":"2026-01-17","upcoming":false,"rating":4.5,"ageRating":"U","status":null,"posterUrl":"https://res.cloudinary.com/dqsv5vmd4/image/upload/v1769621574/bcjrjlzikfuwsrnq7vff.jpg","backgroundUrl":"https://res.cloudinary.com/dqsv5vmd4/image/upload/v1769621577/z20em6mrd9oiv3vtajoo.jpg","cast":["Ben Whishaw","Hugh Bonneville","Olivia Colman"],"crew":["Dougal Wilson","Mark Burton"],"viewCount":0,"genres":["Drama","Comedy"],"languages":["English"]},{"id":7,"title":"Companion","description":"A psychological horror thriller about a new kind of love story.","durationMinutes":115,"releaseDate":"2026-01-10","upcoming":false,"rating":3.4,"ageRating":"R","status":null,"posterUrl":"https://res.cloudinary.com/dqsv5vmd4/image/upload/v1769621603/x6v8ihbemwh1qawrnfae.jpg","backgroundUrl":"https://res.cloudinary.com/dqsv5vmd4/image/upload/v1769621607/u51sdd7hp6ihm99hfkwo.jpg","cast":["Sophie Thatcher","Jack Quaid","Lukas Gage"],"crew":["Drew Hancock"],"viewCount":0,"genres":["Horror","Thriller"],"languages":["English"]},{"id":8,"title":"Mickey 17","description":"An expendable employee on a human expedition to colonize the ice world Niflheim refuses to let his clone replacement take his place.","durationMinutes":139,"releaseDate":"2026-01-31","upcoming":true,"rating":3.8,"ageRating":"R","status":null,"posterUrl":"https://res.cloudinary.com/dqsv5vmd4/image/upload/v1769621633/c1vqf4qozhqytxjx48zx.jpg","backgroundUrl":"https://res.cloudinary.com/dqsv5vmd4/image/upload/v1769621636/p6ipnmsq9zqrc2xwusl3.jpg","cast":["Robert Pattinson","Steven Yeun","Mark Ruffalo"],"crew":["Bong Joon Ho"],"viewCount":0,"genres":["Sci-Fi","Drama"],"languages":["English"]},{"id":9,"title":"Den of Thieves 2: Pantera","description":"Big Nick is back on the hunt in Europe, closing in on Donnie Wilson who has joined the Panther mafia.","durationMinutes":140,"releaseDate":"2026-01-10","upcoming":false,"rating":3.4,"ageRating":"R","status":null,"posterUrl":"https://res.cloudinary.com/dqsv5vmd4/image/upload/v1769621666/yxohdvqbwvof0vqf26ky.jpg","backgroundUrl":"https://res.cloudinary.com/dqsv5vmd4/image/upload/v1769621668/majh9fz02c8tknda1sbc.jpg","cast":["Gerard Butler","O'Shea Jackson Jr."],"crew":["Christian Gudegast"],"viewCount":0,"genres":["Action","Thriller"],"languages":["English"]},{"id":10,"title":"Wolf Man","description":"A man must protect his family from a terrifying werewolf while confronting his own cursed nature.","durationMinutes":110,"releaseDate":"2026-01-17","upcoming":false,"rating":3.5,"ageRating":"R","status":null,"posterUrl":"https://res.cloudinary.com/dqsv5vmd4/image/upload/v1769621701/udfpih7glx36owl5sxdr.jpg","backgroundUrl":"https://res.cloudinary.com/dqsv5vmd4/image/upload/v1769621705/s0rgzwhwklmvbjdfhxxw.jpg","cast":["Christopher Abbott","Julia Garner"],"crew":["Leigh Whannell"],"viewCount":0,"genres":["Horror","Thriller"],"languages":["English"]}],"pageable":{"pageNumber":0,"pageSize":10,"sort":{"unsorted":true,"sorted":false,"empty":true},"offset":0,"unpaged":false,"paged":true},"totalPages":3,"last":false,"totalElements":22,"first":true,"numberOfElements":10,"size":10,"number":0,"sort":{"unsorted":true,"sorted":false,"empty":true},"empty":false}